SML 320 Bayesian Analysis - 14: Poisson Regression Models
…
broom.mixed::tidy(mod_normal,
                  effects = c("fixed", "aux"),
                  conf.int = TRUE, conf.level = 0.90) |>
  mutate_if(is.numeric, round, digits = 4)

# A tibble: 44 × 5
   term        estimate std.error conf.low conf.high
   <chr>          <dbl>     <dbl>    <dbl>     <dbl>
 1 (Intercept)    26.7       6.54   15.8       37.9 
 2 month02        -2.22      4.41   -9.54       5.09
 3 month03        -3.64      4.56  -11.1        3.90
 4 month04         1.16      4.16   -5.66       8.05
 5 month05        -2.86      4.29   -9.90       4.13
 6 month06         2.74      4.22   -4.27       9.61
 7 month07         7.68      4.06    1.02      14.3 
 8 month08         7.01      4.47   -0.320     14.2 
 9 month09        -2.62      5.09  -10.8        5.70
10 month10         1.76      4.58   -5.80       9.29
# ℹ 34 more rows
…
