SML 320 Bayesian Analysis - 9: Posterior Inference
…
https://www.neonscience.org/field-sites/about-field-sites

aquatic_df |> select(site_id) |> distinct() |> as.vector()

$site_id
 [1] "ARIK" "BARC" "BIGC" "BLDE" "BLUE" "BLWA" "CARI" "COMO" "CRAM" "CUPE"
[11] "FLNT" "GUIL" "HOPB" "KING" "LECO" "LEWI" "LIRO" "MART" "MAYF" "MCDI"
[21] "MCRA" "OKSR" "POSE" "PRIN" "PRLA" "PRPO" "REDB" "SUGG" "SYCA" "TECR"
[31] "TOMB" "TOOK" "WALK" "WLOU"

aquatic_df |> group_by(site_id) |> count() |> select(site_id, n)

# A tibble: 34 × 2
# Groups:   site_id [34]
   site_id     n
   <chr>   <int>
 1 ARIK     2912
 2 BARC     2307
 3 BIGC     2113
 4 BLDE     1980
 5 BLUE     1978
 6 BLWA     1573
 7 CARI     1236
 8 COMO     2463
 9 CRAM     1150
10 CUPE     2107
# ℹ 24 more rows
…
